{
	"id": "c2c98ddd-ed16-1afc-5236-5614d9aacf37",
	"name": "Todo",
	"description": "",
	"order": [],
	"folders": [
		{
			"name": "Task",
			"description": "",
			"collectionId": "c2c98ddd-ed16-1afc-5236-5614d9aacf37",
			"order": [
				"d512106b-9334-290c-e6df-c1fd85f14204",
				"07c3986f-131d-3d04-78da-3885c8ae2b71",
				"10acd3e4-1b8d-0bea-606e-00a5f2ba2c43",
				"f8c5ea46-6e8a-70e7-bbbc-da6423d53f32"
			],
			"owner": "936274",
			"folders_order": [],
			"id": "bbbd6990-8d60-d38d-6500-dd5877044780"
		},
		{
			"name": "User",
			"description": "",
			"collectionId": "c2c98ddd-ed16-1afc-5236-5614d9aacf37",
			"order": [
				"5c76faf0-bd48-f7c1-358b-c237e8855bce",
				"9cfba44a-f933-f0a2-1091-b9539668bad2",
				"8c089b2b-5667-06fc-c999-05f44cfb965a"
			],
			"owner": "936274",
			"folders_order": [],
			"id": "7f9a7c8a-4ff2-fb40-53c5-56d33b927965"
		}
	],
	"folders_order": [
		"7f9a7c8a-4ff2-fb40-53c5-56d33b927965",
		"bbbd6990-8d60-d38d-6500-dd5877044780"
	],
	"timestamp": 1569201652910,
	"owner": "936274",
	"public": false,
	"requests": [
		{
			"id": "07c3986f-131d-3d04-78da-3885c8ae2b71",
			"headers": "Content-Type: application/json\ntoken: eyJhbGciOiJIUzI1NiIsInR5cCI6IkpXVCJ9.eyJkYXRhIjp7ImlkIjoiNWQ4ODFmN2Q4NWM1OGIyZWEyOTA4ZTM4IiwiZmlyc3RuYW1lIjoiU2hheWFuIiwibGFzdG5hbWUiOiJBaG1lZCIsInVzZXJuYW1lIjoiam9obi5kb2UiLCJlbWFpbCI6InNoYXlhbmFobWVkNDZAeWFob28uY29tIn0sImlhdCI6MTU2OTIwMjE1NiwiZXhwIjoxNjAwNzU5NzU2fQ._xiz6cx6c_jxRTmqdvuuUQb9avWC4_xljuB_HNRSNbE\n",
			"headerData": [
				{
					"key": "Content-Type",
					"value": "application/json",
					"description": "",
					"enabled": true
				},
				{
					"key": "token",
					"value": "eyJhbGciOiJIUzI1NiIsInR5cCI6IkpXVCJ9.eyJkYXRhIjp7ImlkIjoiNWQ4ODFmN2Q4NWM1OGIyZWEyOTA4ZTM4IiwiZmlyc3RuYW1lIjoiU2hheWFuIiwibGFzdG5hbWUiOiJBaG1lZCIsInVzZXJuYW1lIjoiam9obi5kb2UiLCJlbWFpbCI6InNoYXlhbmFobWVkNDZAeWFob28uY29tIn0sImlhdCI6MTU2OTIwMjE1NiwiZXhwIjoxNjAwNzU5NzU2fQ._xiz6cx6c_jxRTmqdvuuUQb9avWC4_xljuB_HNRSNbE",
					"description": "",
					"enabled": true
				}
			],
			"url": "localhost:5000/api/task",
			"folder": "bbbd6990-8d60-d38d-6500-dd5877044780",
			"queryParams": [],
			"preRequestScript": null,
			"pathVariables": {},
			"pathVariableData": [],
			"method": "DELETE",
			"data": [],
			"dataMode": "raw",
			"tests": null,
			"currentHelper": "normal",
			"helperAttributes": {},
			"time": 1569202479424,
			"name": "Delete Task",
			"description": "",
			"collectionId": "c2c98ddd-ed16-1afc-5236-5614d9aacf37",
			"responses": [],
			"rawModeData": "{\n\t\"_id\": \"5d8820a3a369ea30a2ab588b\"\n}"
		},
		{
			"id": "10acd3e4-1b8d-0bea-606e-00a5f2ba2c43",
			"headers": "Content-Type: application/json\ntoken: eyJhbGciOiJIUzI1NiIsInR5cCI6IkpXVCJ9.eyJkYXRhIjp7ImlkIjoiNWQ4ODFmN2Q4NWM1OGIyZWEyOTA4ZTM4IiwiZmlyc3RuYW1lIjoiU2hheWFuIiwibGFzdG5hbWUiOiJBaG1lZCIsInVzZXJuYW1lIjoiam9obi5kb2UiLCJlbWFpbCI6InNoYXlhbmFobWVkNDZAeWFob28uY29tIn0sImlhdCI6MTU2OTIwMjE1NiwiZXhwIjoxNjAwNzU5NzU2fQ._xiz6cx6c_jxRTmqdvuuUQb9avWC4_xljuB_HNRSNbE\n",
			"headerData": [
				{
					"key": "Content-Type",
					"value": "application/json",
					"description": "",
					"enabled": true
				},
				{
					"key": "token",
					"value": "eyJhbGciOiJIUzI1NiIsInR5cCI6IkpXVCJ9.eyJkYXRhIjp7ImlkIjoiNWQ4ODFmN2Q4NWM1OGIyZWEyOTA4ZTM4IiwiZmlyc3RuYW1lIjoiU2hheWFuIiwibGFzdG5hbWUiOiJBaG1lZCIsInVzZXJuYW1lIjoiam9obi5kb2UiLCJlbWFpbCI6InNoYXlhbmFobWVkNDZAeWFob28uY29tIn0sImlhdCI6MTU2OTIwMjE1NiwiZXhwIjoxNjAwNzU5NzU2fQ._xiz6cx6c_jxRTmqdvuuUQb9avWC4_xljuB_HNRSNbE",
					"description": "",
					"enabled": true
				}
			],
			"url": "localhost:5000/api/task",
			"folder": "bbbd6990-8d60-d38d-6500-dd5877044780",
			"queryParams": [],
			"preRequestScript": null,
			"pathVariables": {},
			"pathVariableData": [],
			"method": "PUT",
			"data": [],
			"dataMode": "raw",
			"tests": null,
			"currentHelper": "normal",
			"helperAttributes": {},
			"time": 1569202432586,
			"name": "Update Task",
			"description": "",
			"collectionId": "c2c98ddd-ed16-1afc-5236-5614d9aacf37",
			"responses": [],
			"rawModeData": "{\n\t\"_id\": \"5d8820a3a369ea30a2ab588b\",\n\t\"title\": \"Task-005 Updated\",\n\t\"description\": \"Task Description\",\n\t\"status\": \"inactive\"\n}"
		},
		{
			"id": "5c76faf0-bd48-f7c1-358b-c237e8855bce",
			"headers": "Content-Type: application/json\n",
			"headerData": [
				{
					"key": "Content-Type",
					"value": "application/json",
					"description": "",
					"enabled": true
				}
			],
			"url": "localhost:5000/api/user",
			"queryParams": [],
			"preRequestScript": null,
			"pathVariables": {},
			"pathVariableData": [],
			"method": "POST",
			"data": [],
			"dataMode": "raw",
			"tests": null,
			"currentHelper": "normal",
			"helperAttributes": {},
			"time": 1569222806486,
			"name": "Add User",
			"description": "",
			"collectionId": "c2c98ddd-ed16-1afc-5236-5614d9aacf37",
			"responses": [],
			"rawModeData": "{\n\t\"username\": \"john.doe\",\n\t\"email\": \"shayanahmed46@yahoo.com\",\n\t\"password\": \"test12\",\n\t\"firstname\": \"Shayan\",\n\t\"lastname\": \"Ahmed\"\n}"
		},
		{
			"id": "8c089b2b-5667-06fc-c999-05f44cfb965a",
			"headers": "Content-Type: application/json\ntoken: eyJhbGciOiJIUzI1NiIsInR5cCI6IkpXVCJ9.eyJkYXRhIjp7ImlkIjoiNWQ4ODFlN2Q5MTQ1NWYyZDE4ZGIyMzVhIiwiZmlyc3RuYW1lIjoiU2hheWFuIiwibGFzdG5hbWUiOiJBaG1lZCIsInVzZXJuYW1lIjoic2hheWFuLmFobWVkIiwiZW1haWwiOiJzaGF5YW5haG1lZDQ2QHlhaG9vLmNvbSJ9LCJpYXQiOjE1NjkyMDE4NDYsImV4cCI6MTYwMDc1OTQ0Nn0.dRnLtEZQqi1V9yOVr9RiCyiXIPVIza5ksVGHrqF-l90\n",
			"headerData": [
				{
					"key": "Content-Type",
					"value": "application/json",
					"description": "",
					"enabled": true
				},
				{
					"key": "token",
					"value": "eyJhbGciOiJIUzI1NiIsInR5cCI6IkpXVCJ9.eyJkYXRhIjp7ImlkIjoiNWQ4ODFlN2Q5MTQ1NWYyZDE4ZGIyMzVhIiwiZmlyc3RuYW1lIjoiU2hheWFuIiwibGFzdG5hbWUiOiJBaG1lZCIsInVzZXJuYW1lIjoic2hheWFuLmFobWVkIiwiZW1haWwiOiJzaGF5YW5haG1lZDQ2QHlhaG9vLmNvbSJ9LCJpYXQiOjE1NjkyMDE4NDYsImV4cCI6MTYwMDc1OTQ0Nn0.dRnLtEZQqi1V9yOVr9RiCyiXIPVIza5ksVGHrqF-l90",
					"description": "",
					"enabled": true
				}
			],
			"url": "localhost:5000/api/user",
			"folder": "7f9a7c8a-4ff2-fb40-53c5-56d33b927965",
			"queryParams": [],
			"preRequestScript": null,
			"pathVariables": {},
			"pathVariableData": [],
			"method": "GET",
			"data": [],
			"dataMode": "raw",
			"tests": null,
			"currentHelper": "normal",
			"helperAttributes": {},
			"time": 1569222850678,
			"name": "Get Users",
			"description": "",
			"collectionId": "c2c98ddd-ed16-1afc-5236-5614d9aacf37",
			"responses": [],
			"rawModeData": "{\n\t\"username\": \"shayan.ahmed\",\n\t\"password\": \"test12\"\n}"
		},
		{
			"id": "9cfba44a-f933-f0a2-1091-b9539668bad2",
			"headers": "Content-Type: application/json\n",
			"headerData": [
				{
					"key": "Content-Type",
					"value": "application/json",
					"description": "",
					"enabled": true
				}
			],
			"url": "localhost:5000/api/user/login",
			"folder": "7f9a7c8a-4ff2-fb40-53c5-56d33b927965",
			"queryParams": [],
			"preRequestScript": null,
			"pathVariables": {},
			"pathVariableData": [],
			"method": "POST",
			"data": [],
			"dataMode": "raw",
			"tests": null,
			"currentHelper": "normal",
			"helperAttributes": {},
			"time": 1569201831824,
			"name": "Login User",
			"description": "",
			"collectionId": "c2c98ddd-ed16-1afc-5236-5614d9aacf37",
			"responses": [],
			"rawModeData": "{\n\t\"username\": \"shayan.ahmed\",\n\t\"password\": \"test12\"\n}"
		},
		{
			"id": "d512106b-9334-290c-e6df-c1fd85f14204",
			"headers": "Content-Type: application/json\ntoken: eyJhbGciOiJIUzI1NiIsInR5cCI6IkpXVCJ9.eyJkYXRhIjp7ImlkIjoiNWQ4ODFmN2Q4NWM1OGIyZWEyOTA4ZTM4IiwiZmlyc3RuYW1lIjoiU2hheWFuIiwibGFzdG5hbWUiOiJBaG1lZCIsInVzZXJuYW1lIjoiam9obi5kb2UiLCJlbWFpbCI6InNoYXlhbmFobWVkNDZAeWFob28uY29tIn0sImlhdCI6MTU2OTIwMjE1NiwiZXhwIjoxNjAwNzU5NzU2fQ._xiz6cx6c_jxRTmqdvuuUQb9avWC4_xljuB_HNRSNbE\n",
			"headerData": [
				{
					"key": "Content-Type",
					"value": "application/json",
					"description": "",
					"enabled": true
				},
				{
					"key": "token",
					"value": "eyJhbGciOiJIUzI1NiIsInR5cCI6IkpXVCJ9.eyJkYXRhIjp7ImlkIjoiNWQ4ODFmN2Q4NWM1OGIyZWEyOTA4ZTM4IiwiZmlyc3RuYW1lIjoiU2hheWFuIiwibGFzdG5hbWUiOiJBaG1lZCIsInVzZXJuYW1lIjoiam9obi5kb2UiLCJlbWFpbCI6InNoYXlhbmFobWVkNDZAeWFob28uY29tIn0sImlhdCI6MTU2OTIwMjE1NiwiZXhwIjoxNjAwNzU5NzU2fQ._xiz6cx6c_jxRTmqdvuuUQb9avWC4_xljuB_HNRSNbE",
					"description": "",
					"enabled": true
				}
			],
			"url": "localhost:5000/api/task",
			"folder": "7f9a7c8a-4ff2-fb40-53c5-56d33b927965",
			"queryParams": [],
			"preRequestScript": null,
			"pathVariables": {},
			"pathVariableData": [],
			"method": "POST",
			"data": [],
			"dataMode": "raw",
			"tests": null,
			"currentHelper": "normal",
			"helperAttributes": {},
			"time": 1569202360727,
			"name": "Add Task",
			"description": "",
			"collectionId": "c2c98ddd-ed16-1afc-5236-5614d9aacf37",
			"responses": [],
			"rawModeData": "{\n\t\"title\": \"Task-005\",\n\t\"description\": \"Task Description\",\n\t\"status\": \"active\"\n}"
		},
		{
			"id": "f8c5ea46-6e8a-70e7-bbbc-da6423d53f32",
			"headers": "Content-Type: application/json\ntoken: eyJhbGciOiJIUzI1NiIsInR5cCI6IkpXVCJ9.eyJkYXRhIjp7ImlkIjoiNWQ4ODFmN2Q4NWM1OGIyZWEyOTA4ZTM4IiwiZmlyc3RuYW1lIjoiU2hheWFuIiwibGFzdG5hbWUiOiJBaG1lZCIsInVzZXJuYW1lIjoiam9obi5kb2UiLCJlbWFpbCI6InNoYXlhbmFobWVkNDZAeWFob28uY29tIn0sImlhdCI6MTU2OTIwMjE1NiwiZXhwIjoxNjAwNzU5NzU2fQ._xiz6cx6c_jxRTmqdvuuUQb9avWC4_xljuB_HNRSNbE\n",
			"headerData": [
				{
					"key": "Content-Type",
					"value": "application/json",
					"description": "",
					"enabled": true
				},
				{
					"key": "token",
					"value": "eyJhbGciOiJIUzI1NiIsInR5cCI6IkpXVCJ9.eyJkYXRhIjp7ImlkIjoiNWQ4ODFmN2Q4NWM1OGIyZWEyOTA4ZTM4IiwiZmlyc3RuYW1lIjoiU2hheWFuIiwibGFzdG5hbWUiOiJBaG1lZCIsInVzZXJuYW1lIjoiam9obi5kb2UiLCJlbWFpbCI6InNoYXlhbmFobWVkNDZAeWFob28uY29tIn0sImlhdCI6MTU2OTIwMjE1NiwiZXhwIjoxNjAwNzU5NzU2fQ._xiz6cx6c_jxRTmqdvuuUQb9avWC4_xljuB_HNRSNbE",
					"description": "",
					"enabled": true
				}
			],
			"url": "localhost:5000/api/task",
			"folder": "bbbd6990-8d60-d38d-6500-dd5877044780",
			"queryParams": [],
			"preRequestScript": null,
			"pathVariables": {},
			"pathVariableData": [],
			"method": "GET",
			"data": [],
			"dataMode": "raw",
			"tests": null,
			"currentHelper": "normal",
			"helperAttributes": {},
			"time": 1569202363820,
			"name": "Fetch Tasks",
			"description": "",
			"collectionId": "c2c98ddd-ed16-1afc-5236-5614d9aacf37",
			"responses": [],
			"rawModeData": "{\n\t\"title\": \"Task-001\",\n\t\"description\": \"Task Description\",\n\t\"status\": \"active\"\n}"
		}
	]
}